<svg width="21" height="21" viewBox="0 0 21 21" fill="none" xmlns="http://www.w3.org/2000/svg">
<path d="M3.98645 4.17139H17.2364C18.4864 4.17139 19.1164 4.76139 19.1164 5.96139V14.3814C19.1164 15.5714 18.4864 16.1714 17.2364 16.1714H3.98645C2.73645 16.1714 2.10645 15.5714 2.10645 14.3814V5.96139C2.10645 4.76139 2.73645 4.17139 3.98645 4.17139ZM10.6064 12.7714L17.3464 7.24139C17.5864 7.04139 17.7764 6.58139 17.4764 6.17139C17.1864 5.76139 16.6564 5.75139 16.3064 6.00139L10.6064 9.86139L4.91645 6.00139C4.56645 5.75139 4.03645 5.76139 3.74645 6.17139C3.44645 6.58139 3.63645 7.04139 3.87645 7.24139L10.6064 12.7714Z" fill="#333333"/>
</svg>
