<svg width="8" height="16" viewBox="0 0 8 16" fill="none" xmlns="http://www.w3.org/2000/svg">
<g clip-path="url(#clip0_197_462)">
<path d="M2.04222 16V8.49234H0L0 5.78922H2.04222V3.4804C2.04222 1.66611 3.24856 0 6.02823 0C7.15368 0 7.9859 0.10488 7.9859 0.10488L7.92032 2.62914C7.92032 2.62914 7.0716 2.6211 6.14543 2.6211C5.14303 2.6211 4.98244 3.07014 4.98244 3.81544V5.78922H8L7.8687 8.49234H4.98244V16H2.04222Z" fill="#333333"/>
</g>
<defs>
<clipPath id="clip0_197_462">
<rect width="8" height="16" fill="white"/>
</clipPath>
</defs>
</svg>
