<svg width="30" height="30" viewBox="0 0 30 30" fill="none" xmlns="http://www.w3.org/2000/svg">
<path opacity="0.15" d="M23.75 26.25C22.3693 26.25 21.25 25.1307 21.25 23.75C21.25 22.3693 22.3693 21.25 23.75 21.25C25.1307 21.25 26.25 22.3693 26.25 23.75C26.25 25.1307 25.1307 26.25 23.75 26.25Z" fill="#001A72"/>
<path d="M14.6117 3.75L16.25 6.25C15.7349 9.93258 13.8736 14.5701 10.8519 16.0517C10.5819 16.1841 10.2902 16.2502 9.99853 16.25M5.38839 3.75L3.75 6.25C4.26508 9.93257 6.12653 14.5701 9.14817 16.0517C9.41729 16.1837 9.70789 16.2498 9.99853 16.25M23.75 21.25C25.1308 21.25 26.25 22.3693 26.25 23.75C26.25 25.1307 25.1308 26.25 23.75 26.25C22.3693 26.25 21.25 25.1307 21.25 23.75C21.25 22.3693 22.3693 21.25 23.75 21.25ZM23.75 21.25V19.375C23.75 18.5462 23.4208 17.7513 22.8348 17.1653C22.2487 16.5792 21.4538 16.25 20.625 16.25C19.7962 16.25 19.0014 16.5792 18.4153 17.1653C17.8293 17.7513 17.5 18.5462 17.5 19.375V21.25C17.5 22.2446 17.105 23.1984 16.4017 23.9017C15.6984 24.6049 14.7446 25 13.75 25C12.7555 25 11.8017 24.6049 11.0984 23.9017C10.3951 23.1984 10 22.2446 10 21.25L9.99853 16.25" stroke="#001A72" stroke-width="1.5" stroke-linecap="round" stroke-linejoin="round"/>
</svg>
