<svg width="21" height="21" viewBox="0 0 21 21" fill="none" xmlns="http://www.w3.org/2000/svg">
<path opacity="0.15" d="M18.3745 14.4171V16.7881C18.3782 17.6945 17.5632 18.4514 16.6481 18.3688C8.75 18.375 2.625 12.1931 2.63118 4.34804C2.54877 3.43783 3.30188 2.62593 4.20709 2.62508H6.58284C6.96716 2.6213 7.33975 2.75713 7.63115 3.00724C8.45961 3.71831 8.99249 6.1318 8.78746 7.09124C8.62739 7.84032 7.87229 8.36438 7.35892 8.87674C8.48626 10.8554 10.1278 12.4937 12.1104 13.6188C12.6238 13.1065 13.1489 12.3529 13.8994 12.1931C14.8623 11.9882 17.2913 12.5218 17.9995 13.356C18.2507 13.6519 18.3841 14.0295 18.3745 14.4171Z" fill="#001A72"/>
<path d="M18.3745 16.7881V14.4171C18.3841 14.0295 18.2507 13.6519 17.9995 13.356C17.2913 12.5218 14.8623 11.9882 13.8994 12.1931C13.1489 12.3529 12.6238 13.1065 12.1104 13.6188C10.1278 12.4937 8.48626 10.8554 7.35892 8.87674C7.87229 8.36438 8.62739 7.84032 8.78746 7.09124C8.99249 6.1318 8.45961 3.71831 7.63115 3.00724C7.33975 2.75713 6.96716 2.6213 6.58284 2.62508H4.20709C3.30188 2.62593 2.54877 3.43783 2.63118 4.34804C2.625 12.1931 8.75 18.375 16.6481 18.3688C17.5632 18.4514 18.3782 17.6945 18.3745 16.7881Z" stroke="#001A72" stroke-width="1.5" stroke-linecap="round" stroke-linejoin="round"/>
</svg>
